lc = 0.34*1e-6;
lc2 = 0.24*1e-6;


// RECTANGLE 

// Points

p1 = newp;
Point(p1) = {-5e-06, -5e-06, 0, lc};
p2 = newp;
Point(p2) = {5e-06, -5e-06, 0, lc};
p3 = newp;
Point(p3) = {5e-06, 5e-06, 0, lc};
p4 = newp;
Point(p4) = {-5e-06, 5e-06, 0, lc};

// Lines

l1 = newl;
Line(l1) = {p1, p2};
l2 = newl;
Line(l2) = {p2, p3};
l3 = newl;
Line(l3) = {p3, p4};
l4 = newl;
Line(l4) = {p4, p1};

// Line Loops

ll1 = newll;
Line Loop(ll1) = {l1, l2, l3, l4};

// CELL 

// Points

p5 = newp;
Point(p5) = {3e-06, 0.0, 0, lc2};
p6 = newp;
Point(p6) = {2.9835656861e-06, 3.13585389803e-07, 0, lc2};
p7 = newp;
Point(p7) = {2.9344428022e-06, 6.23735072453e-07, 0, lc2};
p8 = newp;
Point(p8) = {2.85316954889e-06, 9.27050983125e-07, 0, lc2};
p9 = newp;
Point(p9) = {2.74063637293e-06, 1.22020992923e-06, 0, lc2};
p10 = newp;
Point(p10) = {2.59807621135e-06, 1.5e-06, 0, lc2};
p11 = newp;
Point(p11) = {2.42705098312e-06, 1.76335575688e-06, 0, lc2};
p12 = newp;
Point(p12) = {2.22943447643e-06, 2.00739181908e-06, 0, lc2};
p13 = newp;
Point(p13) = {2.00739181908e-06, 2.22943447643e-06, 0, lc2};
p14 = newp;
Point(p14) = {1.76335575688e-06, 2.42705098312e-06, 0, lc2};
p15 = newp;
Point(p15) = {1.5e-06, 2.59807621135e-06, 0, lc2};
p16 = newp;
Point(p16) = {1.22020992923e-06, 2.74063637293e-06, 0, lc2};
p17 = newp;
Point(p17) = {9.27050983125e-07, 2.85316954889e-06, 0, lc2};
p18 = newp;
Point(p18) = {6.23735072453e-07, 2.9344428022e-06, 0, lc2};
p19 = newp;
Point(p19) = {3.13585389803e-07, 2.9835656861e-06, 0, lc2};
p20 = newp;
Point(p20) = {-4.82436794903e-22, 3e-06, 0, lc2};
p21 = newp;
Point(p21) = {-3.13585389803e-07, 2.9835656861e-06, 0, lc2};
p22 = newp;
Point(p22) = {-6.23735072453e-07, 2.9344428022e-06, 0, lc2};
p23 = newp;
Point(p23) = {-9.27050983125e-07, 2.85316954889e-06, 0, lc2};
p24 = newp;
Point(p24) = {-1.22020992923e-06, 2.74063637293e-06, 0, lc2};
p25 = newp;
Point(p25) = {-1.5e-06, 2.59807621135e-06, 0, lc2};
p26 = newp;
Point(p26) = {-1.76335575688e-06, 2.42705098312e-06, 0, lc2};
p27 = newp;
Point(p27) = {-2.00739181908e-06, 2.22943447643e-06, 0, lc2};
p28 = newp;
Point(p28) = {-2.22943447643e-06, 2.00739181908e-06, 0, lc2};
p29 = newp;
Point(p29) = {-2.42705098312e-06, 1.76335575688e-06, 0, lc2};
p30 = newp;
Point(p30) = {-2.59807621135e-06, 1.5e-06, 0, lc2};
p31 = newp;
Point(p31) = {-2.74063637293e-06, 1.22020992923e-06, 0, lc2};
p32 = newp;
Point(p32) = {-2.85316954889e-06, 9.27050983125e-07, 0, lc2};
p33 = newp;
Point(p33) = {-2.9344428022e-06, 6.23735072453e-07, 0, lc2};
p34 = newp;
Point(p34) = {-2.9835656861e-06, 3.13585389803e-07, 0, lc2};
p35 = newp;
Point(p35) = {-3e-06, -9.64873589806e-22, 0, lc2};
p36 = newp;
Point(p36) = {-2.9835656861e-06, -3.13585389803e-07, 0, lc2};
p37 = newp;
Point(p37) = {-2.9344428022e-06, -6.23735072453e-07, 0, lc2};
p38 = newp;
Point(p38) = {-2.85316954889e-06, -9.27050983125e-07, 0, lc2};
p39 = newp;
Point(p39) = {-2.74063637293e-06, -1.22020992923e-06, 0, lc2};
p40 = newp;
Point(p40) = {-2.59807621135e-06, -1.5e-06, 0, lc2};
p41 = newp;
Point(p41) = {-2.42705098312e-06, -1.76335575688e-06, 0, lc2};
p42 = newp;
Point(p42) = {-2.22943447643e-06, -2.00739181908e-06, 0, lc2};
p43 = newp;
Point(p43) = {-2.00739181908e-06, -2.22943447643e-06, 0, lc2};
p44 = newp;
Point(p44) = {-1.76335575688e-06, -2.42705098312e-06, 0, lc2};
p45 = newp;
Point(p45) = {-1.5e-06, -2.59807621135e-06, 0, lc2};
p46 = newp;
Point(p46) = {-1.22020992923e-06, -2.74063637293e-06, 0, lc2};
p47 = newp;
Point(p47) = {-9.27050983125e-07, -2.85316954889e-06, 0, lc2};
p48 = newp;
Point(p48) = {-6.23735072453e-07, -2.9344428022e-06, 0, lc2};
p49 = newp;
Point(p49) = {-3.13585389803e-07, -2.9835656861e-06, 0, lc2};
p50 = newp;
Point(p50) = {-5.51091059616e-22, -3e-06, 0, lc2};
p51 = newp;
Point(p51) = {3.13585389803e-07, -2.9835656861e-06, 0, lc2};
p52 = newp;
Point(p52) = {6.23735072453e-07, -2.9344428022e-06, 0, lc2};
p53 = newp;
Point(p53) = {9.27050983125e-07, -2.85316954889e-06, 0, lc2};
p54 = newp;
Point(p54) = {1.22020992923e-06, -2.74063637293e-06, 0, lc2};
p55 = newp;
Point(p55) = {1.5e-06, -2.59807621135e-06, 0, lc2};
p56 = newp;
Point(p56) = {1.76335575688e-06, -2.42705098312e-06, 0, lc2};
p57 = newp;
Point(p57) = {2.00739181908e-06, -2.22943447643e-06, 0, lc2};
p58 = newp;
Point(p58) = {2.22943447643e-06, -2.00739181908e-06, 0, lc2};
p59 = newp;
Point(p59) = {2.42705098312e-06, -1.76335575688e-06, 0, lc2};
p60 = newp;
Point(p60) = {2.59807621135e-06, -1.5e-06, 0, lc2};
p61 = newp;
Point(p61) = {2.74063637293e-06, -1.22020992923e-06, 0, lc2};
p62 = newp;
Point(p62) = {2.85316954889e-06, -9.27050983125e-07, 0, lc2};
p63 = newp;
Point(p63) = {2.9344428022e-06, -6.23735072453e-07, 0, lc2};
p64 = newp;
Point(p64) = {2.9835656861e-06, -3.13585389803e-07, 0, lc2};

// Lines

l5 = newl;
Line(l5) = {p5, p6};
l6 = newl;
Line(l6) = {p6, p7};
l7 = newl;
Line(l7) = {p7, p8};
l8 = newl;
Line(l8) = {p8, p9};
l9 = newl;
Line(l9) = {p9, p10};
l10 = newl;
Line(l10) = {p10, p11};
l11 = newl;
Line(l11) = {p11, p12};
l12 = newl;
Line(l12) = {p12, p13};
l13 = newl;
Line(l13) = {p13, p14};
l14 = newl;
Line(l14) = {p14, p15};
l15 = newl;
Line(l15) = {p15, p16};
l16 = newl;
Line(l16) = {p16, p17};
l17 = newl;
Line(l17) = {p17, p18};
l18 = newl;
Line(l18) = {p18, p19};
l19 = newl;
Line(l19) = {p19, p20};
l20 = newl;
Line(l20) = {p20, p21};
l21 = newl;
Line(l21) = {p21, p22};
l22 = newl;
Line(l22) = {p22, p23};
l23 = newl;
Line(l23) = {p23, p24};
l24 = newl;
Line(l24) = {p24, p25};
l25 = newl;
Line(l25) = {p25, p26};
l26 = newl;
Line(l26) = {p26, p27};
l27 = newl;
Line(l27) = {p27, p28};
l28 = newl;
Line(l28) = {p28, p29};
l29 = newl;
Line(l29) = {p29, p30};
l30 = newl;
Line(l30) = {p30, p31};
l31 = newl;
Line(l31) = {p31, p32};
l32 = newl;
Line(l32) = {p32, p33};
l33 = newl;
Line(l33) = {p33, p34};
l34 = newl;
Line(l34) = {p34, p35};
l35 = newl;
Line(l35) = {p35, p36};
l36 = newl;
Line(l36) = {p36, p37};
l37 = newl;
Line(l37) = {p37, p38};
l38 = newl;
Line(l38) = {p38, p39};
l39 = newl;
Line(l39) = {p39, p40};
l40 = newl;
Line(l40) = {p40, p41};
l41 = newl;
Line(l41) = {p41, p42};
l42 = newl;
Line(l42) = {p42, p43};
l43 = newl;
Line(l43) = {p43, p44};
l44 = newl;
Line(l44) = {p44, p45};
l45 = newl;
Line(l45) = {p45, p46};
l46 = newl;
Line(l46) = {p46, p47};
l47 = newl;
Line(l47) = {p47, p48};
l48 = newl;
Line(l48) = {p48, p49};
l49 = newl;
Line(l49) = {p49, p50};
l50 = newl;
Line(l50) = {p50, p51};
l51 = newl;
Line(l51) = {p51, p52};
l52 = newl;
Line(l52) = {p52, p53};
l53 = newl;
Line(l53) = {p53, p54};
l54 = newl;
Line(l54) = {p54, p55};
l55 = newl;
Line(l55) = {p55, p56};
l56 = newl;
Line(l56) = {p56, p57};
l57 = newl;
Line(l57) = {p57, p58};
l58 = newl;
Line(l58) = {p58, p59};
l59 = newl;
Line(l59) = {p59, p60};
l60 = newl;
Line(l60) = {p60, p61};
l61 = newl;
Line(l61) = {p61, p62};
l62 = newl;
Line(l62) = {p62, p63};
l63 = newl;
Line(l63) = {p63, p64};
l64 = newl;
Line(l64) = {p64, p5};

// Line Loops

ll2 = newll;
Line Loop(ll2) = {l5, l6, l7, l8, l9, l10, l11, l12, l13, l14, l15, l16, l17, l18, l19, l20, l21, l22, l23, l24, l25, l26, l27, l28, l29, l30, l31, l32, l33, l34, l35, l36, l37, l38, l39, l40, l41, l42, l43, l44, l45, l46, l47, l48, l49, l50, l51, l52, l53, l54, l55, l56, l57, l58, l59, l60, l61, l62, l63, l64};
Physical Line(1) = {l5, l6, l7, l8, l9, l10, l11, l12, l13, l14, l15, l16, l17, l18, l19, l20, l21, l22, l23, l24, l25, l26, l27, l28, l29, l30, l31, l32, l33, l34, l35, l36, l37, l38, l39, l40, l41, l42, l43, l44, l45, l46, l47, l48, l49, l50, l51, l52, l53, l54, l55, l56, l57, l58, l59, l60, l61, l62, l63, l64};

surf1 = news;
Plane Surface(surf1) = {ll1, ll2}; 
surf2 = news;
Plane Surface(surf2) = {ll2}; 
Physical Surface(0) = {surf1}; 
Physical Surface(1) = {surf2}; 
